\contentsline {chapter}{\numberline {1}Hierarchical Index}{1}{chapter.1}% 
\contentsline {section}{\numberline {1.1}Class Hierarchy}{1}{section.1.1}% 
\contentsline {chapter}{\numberline {2}Class Index}{3}{chapter.2}% 
\contentsline {section}{\numberline {2.1}Class List}{3}{section.2.1}% 
\contentsline {chapter}{\numberline {3}File Index}{5}{chapter.3}% 
\contentsline {section}{\numberline {3.1}File List}{5}{section.3.1}% 
\contentsline {chapter}{\numberline {4}Class Documentation}{7}{chapter.4}% 
\contentsline {section}{\numberline {4.1}game\discretionary {\unhbox \voidb@x \hbox {\relax \fontsize {7}{8}\selectfont $\leftarrow \joinrel \rhook $}}{}{}Menu Class Reference}{7}{section.4.1}% 
\contentsline {section}{\numberline {4.2}main\discretionary {\unhbox \voidb@x \hbox {\relax \fontsize {7}{8}\selectfont $\leftarrow \joinrel \rhook $}}{}{}Widget Class Reference}{9}{section.4.2}% 
\contentsline {subsection}{\numberline {4.2.1}Member Function Documentation}{10}{subsection.4.2.1}% 
\contentsline {subsubsection}{\numberline {4.2.1.1}button\discretionary {\unhbox \voidb@x \hbox {\relax \fontsize {7}{8}\selectfont $\leftarrow \joinrel \rhook $}}{}{}Style()}{10}{subsubsection.4.2.1.1}% 
\contentsline {subsubsection}{\numberline {4.2.1.2}label\discretionary {\unhbox \voidb@x \hbox {\relax \fontsize {7}{8}\selectfont $\leftarrow \joinrel \rhook $}}{}{}Style()}{11}{subsubsection.4.2.1.2}% 
\contentsline {subsubsection}{\numberline {4.2.1.3}sign\discretionary {\unhbox \voidb@x \hbox {\relax \fontsize {7}{8}\selectfont $\leftarrow \joinrel \rhook $}}{}{}In}{11}{subsubsection.4.2.1.3}% 
\contentsline {subsubsection}{\numberline {4.2.1.4}styling()}{11}{subsubsection.4.2.1.4}% 
\contentsline {section}{\numberline {4.3}sign\discretionary {\unhbox \voidb@x \hbox {\relax \fontsize {7}{8}\selectfont $\leftarrow \joinrel \rhook $}}{}{}Up\discretionary {\unhbox \voidb@x \hbox {\relax \fontsize {7}{8}\selectfont $\leftarrow \joinrel \rhook $}}{}{}Page Class Reference}{12}{section.4.3}% 
\contentsline {chapter}{\numberline {5}File Documentation}{15}{chapter.5}% 
\contentsline {section}{\numberline {5.1}main\discretionary {\unhbox \voidb@x \hbox {\relax \fontsize {7}{8}\selectfont $\leftarrow \joinrel \rhook $}}{}{}Widget.\discretionary {\unhbox \voidb@x \hbox {\relax \fontsize {7}{8}\selectfont $\leftarrow \joinrel \rhook $}}{}{}cpp File Reference}{15}{section.5.1}% 
\contentsline {subsection}{\numberline {5.1.1}Detailed Description}{15}{subsection.5.1.1}% 
\contentsline {section}{\numberline {5.2}main\discretionary {\unhbox \voidb@x \hbox {\relax \fontsize {7}{8}\selectfont $\leftarrow \joinrel \rhook $}}{}{}Widget.\discretionary {\unhbox \voidb@x \hbox {\relax \fontsize {7}{8}\selectfont $\leftarrow \joinrel \rhook $}}{}{}h File Reference}{16}{section.5.2}% 
\contentsline {subsection}{\numberline {5.2.1}Detailed Description}{16}{subsection.5.2.1}% 
