\relax 
\providecommand\hyper@newdestlabel[2]{}
\providecommand\HyperFirstAtBeginDocument{\AtBeginDocument}
\HyperFirstAtBeginDocument{\ifx\hyper@anchor\@undefined
\global\let\oldcontentsline\contentsline
\gdef\contentsline#1#2#3#4{\oldcontentsline{#1}{#2}{#3}}
\global\let\oldnewlabel\newlabel
\gdef\newlabel#1#2{\newlabelxx{#1}#2}
\gdef\newlabelxx#1#2#3#4#5#6{\oldnewlabel{#1}{{#2}{#3}}}
\AtEndDocument{\ifx\hyper@anchor\@undefined
\let\contentsline\oldcontentsline
\let\newlabel\oldnewlabel
\fi}
\fi}
\global\let\hyper@last\relax 
\gdef\HyperFirstAtBeginDocument#1{#1}
\providecommand\HyField@AuxAddToFields[1]{}
\providecommand\HyField@AuxAddToCoFields[2]{}
\providecommand \oddpage@label [2]{}
\@writefile{toc}{\contentsline {chapter}{\numberline {1}Hierarchical Index}{1}{chapter.1}\protected@file@percent }
\@writefile{lof}{\addvspace {10\p@ }}
\@writefile{lot}{\addvspace {10\p@ }}
\@writefile{toc}{\contentsline {section}{\numberline {1.1}Class Hierarchy}{1}{section.1.1}\protected@file@percent }
\@writefile{toc}{\contentsline {chapter}{\numberline {2}Class Index}{3}{chapter.2}\protected@file@percent }
\@writefile{lof}{\addvspace {10\p@ }}
\@writefile{lot}{\addvspace {10\p@ }}
\@writefile{toc}{\contentsline {section}{\numberline {2.1}Class List}{3}{section.2.1}\protected@file@percent }
\@writefile{toc}{\contentsline {chapter}{\numberline {3}File Index}{5}{chapter.3}\protected@file@percent }
\@writefile{lof}{\addvspace {10\p@ }}
\@writefile{lot}{\addvspace {10\p@ }}
\@writefile{toc}{\contentsline {section}{\numberline {3.1}File List}{5}{section.3.1}\protected@file@percent }
\@writefile{toc}{\contentsline {chapter}{\numberline {4}Class Documentation}{7}{chapter.4}\protected@file@percent }
\@writefile{lof}{\addvspace {10\p@ }}
\@writefile{lot}{\addvspace {10\p@ }}
\@writefile{toc}{\contentsline {section}{\numberline {4.1}game\discretionary {\unhbox \voidb@x \hbox {\relax \fontsize  {7}{8}\selectfont  $\leftarrow \joinrel  \rhook $}}{}{}Menu Class Reference}{7}{section.4.1}\protected@file@percent }
\newlabel{classgameMenu}{{4.1}{7}{game\+Menu Class Reference}{section.4.1}{}}
\newlabel{classgameMenu_a8d5eef5807e8267751a7a97f2db84d7c}{{4.1}{7}{Public Slots}{section*.4}{}}
\newlabel{classgameMenu_a2a33244dde76ba1f5d4a1e4ccd62581b}{{4.1}{8}{Public Member Functions}{section*.5}{}}
\newlabel{classgameMenu_a7af7e93a1c98a4396e532b39bb351037}{{4.1}{8}{Public Attributes}{section*.6}{}}
\newlabel{classgameMenu_ac4ee736257026ed3981601e005a518ad}{{4.1}{8}{Public Attributes}{section*.6}{}}
\newlabel{classgameMenu_a5636e63e7839678fdac6c32a1ef66bd5}{{4.1}{8}{Public Attributes}{section*.6}{}}
\newlabel{classgameMenu_ab3824282399dc0a5f7d0e964f3e480e4}{{4.1}{8}{Public Attributes}{section*.6}{}}
\newlabel{classgameMenu_a5d8df6abb68cb8e52477845d97db35f5}{{4.1}{8}{Public Attributes}{section*.6}{}}
\newlabel{classgameMenu_a78c1540ad9e936f751ca8ab58303a71a}{{4.1}{8}{Public Attributes}{section*.6}{}}
\newlabel{classgameMenu_a3cbcfe800733ace2d7a0a917a4fa5054}{{4.1}{8}{Private Member Functions}{section*.7}{}}
\newlabel{classgameMenu_a0020d510f8a5bdc271ae83efdc39c159}{{4.1}{8}{Private Member Functions}{section*.7}{}}
\newlabel{classgameMenu_a3bcb20475d9df49e39c145f343b0afb3}{{4.1}{8}{Private Member Functions}{section*.7}{}}
\newlabel{classgameMenu_a66e43eac3f215e6b3356e8c984e3cb1c}{{4.1}{8}{Private Member Functions}{section*.7}{}}
\newlabel{classgameMenu_ae65f2c9b54137c90216f87472972ba2b}{{4.1}{8}{Private Member Functions}{section*.7}{}}
\newlabel{classgameMenu_a97f0b383ad0e6d07f79c119a88acf6b7}{{4.1}{8}{Private Member Functions}{section*.7}{}}
\newlabel{classgameMenu_a0503c4f8175afe595d8d344754eb71f3}{{4.1}{8}{Private Attributes}{section*.8}{}}
\newlabel{classgameMenu_ac385f86aa0e64241b6a0036190644551}{{4.1}{8}{Private Attributes}{section*.8}{}}
\newlabel{classgameMenu_a4184bddc6f75b6e556a2c09a7584ad12}{{4.1}{8}{Private Attributes}{section*.8}{}}
\newlabel{classgameMenu_a25a7cb829ccb7565dbbb88c605706d4e}{{4.1}{8}{Private Attributes}{section*.8}{}}
\newlabel{classgameMenu_a63dae8866c16d6b2bd31d457b0370e75}{{4.1}{8}{Private Attributes}{section*.8}{}}
\newlabel{classgameMenu_ab361b31d53e3c1d52da80e8c5d66cea7}{{4.1}{8}{Private Attributes}{section*.8}{}}
\newlabel{classgameMenu_ad6cec84aa3df3664b956219e3d6520fd}{{4.1}{8}{Private Attributes}{section*.8}{}}
\newlabel{classgameMenu_a490e9f418caf4c28e937ce23df2d973b}{{4.1}{8}{Private Attributes}{section*.8}{}}
\newlabel{classgameMenu_ad9d1f478d8e78d9c11851ea307f48db6}{{4.1}{8}{Private Attributes}{section*.8}{}}
\@writefile{toc}{\contentsline {section}{\numberline {4.2}main\discretionary {\unhbox \voidb@x \hbox {\relax \fontsize  {7}{8}\selectfont  $\leftarrow \joinrel  \rhook $}}{}{}Widget Class Reference}{9}{section.4.2}\protected@file@percent }
\newlabel{classmainWidget}{{4.2}{9}{main\+Widget Class Reference}{section.4.2}{}}
\newlabel{classmainWidget_a87cdb619caf0793c49a656b8e8f18286}{{4.2}{9}{Public Slots}{section*.11}{}}
\newlabel{classmainWidget_afc358112a27702edf74ff89cc485a8d1}{{4.2}{9}{Public Slots}{section*.11}{}}
\newlabel{classmainWidget_ad73a469a876f7642f125c2e114fde3b6}{{4.2}{9}{Public Member Functions}{section*.12}{}}
\newlabel{classmainWidget_aca43e96789d5517b4f4e03da51741c50}{{4.2}{10}{Private Member Functions}{section*.13}{}}
\newlabel{classmainWidget_acb28cd1747555b32ec25f5f0b317db6c}{{4.2}{10}{Private Member Functions}{section*.13}{}}
\newlabel{classmainWidget_a6d8926dfc583e4ffd0b6c8b45b63b81a}{{4.2}{10}{Private Member Functions}{section*.13}{}}
\newlabel{classmainWidget_aa9100cec325550c627945225e569772e}{{4.2}{10}{Private Attributes}{section*.14}{}}
\newlabel{classmainWidget_a1a845a22988eece50ab3ff402e65d544}{{4.2}{10}{Private Attributes}{section*.14}{}}
\newlabel{classmainWidget_ab258b2e112b2de7f3af252b954a00505}{{4.2}{10}{Private Attributes}{section*.14}{}}
\newlabel{classmainWidget_a99dbc8893a9608bd9be0fe2c11a55932}{{4.2}{10}{Private Attributes}{section*.14}{}}
\newlabel{classmainWidget_a62b73d60926f49dea05386f1ccd135f2}{{4.2}{10}{Private Attributes}{section*.14}{}}
\newlabel{classmainWidget_a28fd48ab6d6920c9f9fe1a789c7ee1ff}{{4.2}{10}{Private Attributes}{section*.14}{}}
\newlabel{classmainWidget_ab85387457340be83db0db100cbbd1301}{{4.2}{10}{Private Attributes}{section*.14}{}}
\newlabel{classmainWidget_acde0d49995cc7e5bfdfd5f17d809b7ca}{{4.2}{10}{Private Attributes}{section*.14}{}}
\newlabel{classmainWidget_a1413d778441ed83c5b00db2645eda087}{{4.2}{10}{Private Attributes}{section*.14}{}}
\newlabel{classmainWidget_a2dc8a3fc928dfd2f4fa493d40957eb6f}{{4.2}{10}{Private Attributes}{section*.14}{}}
\@writefile{toc}{\contentsline {subsection}{\numberline {4.2.1}Member Function Documentation}{10}{subsection.4.2.1}\protected@file@percent }
\newlabel{classmainWidget_a5c173613bf9e1028ea4f0a559b1d7150}{{4.2.1}{10}{Member Function Documentation}{subsection.4.2.1}{}}
\@writefile{toc}{\contentsline {subsubsection}{\numberline {4.2.1.1}button\discretionary {\unhbox \voidb@x \hbox {\relax \fontsize  {7}{8}\selectfont  $\leftarrow \joinrel  \rhook $}}{}{}Style()}{10}{subsubsection.4.2.1.1}\protected@file@percent }
\gdef \LT@i {\LT@entry 
    {3}{30.30971pt}\LT@entry 
    {3}{241.75058pt}}
\gdef \LT@ii {\LT@entry 
    {3}{26.61986pt}\LT@entry 
    {3}{235.91876pt}}
\gdef \LT@iii {\LT@entry 
    {3}{27.30376pt}\LT@entry 
    {3}{247.88858pt}}
\newlabel{classmainWidget_a9a968f9369645f35294a70efedb6db03}{{4.2.1.1}{11}{\texorpdfstring {button\+Style()}{buttonStyle()}}{table.4.1}{}}
\@writefile{toc}{\contentsline {subsubsection}{\numberline {4.2.1.2}label\discretionary {\unhbox \voidb@x \hbox {\relax \fontsize  {7}{8}\selectfont  $\leftarrow \joinrel  \rhook $}}{}{}Style()}{11}{subsubsection.4.2.1.2}\protected@file@percent }
\newlabel{classmainWidget_aacf99911130808cac12a672de81b21a2}{{4.2.1.2}{11}{\texorpdfstring {label\+Style()}{labelStyle()}}{table.4.2}{}}
\@writefile{toc}{\contentsline {subsubsection}{\numberline {4.2.1.3}sign\discretionary {\unhbox \voidb@x \hbox {\relax \fontsize  {7}{8}\selectfont  $\leftarrow \joinrel  \rhook $}}{}{}In}{11}{subsubsection.4.2.1.3}\protected@file@percent }
\newlabel{classmainWidget_abc7c42fd0e40080a15c937b68d5fab53}{{4.2.1.3}{11}{\texorpdfstring {sign\+In}{signIn}}{subsubsection.4.2.1.3}{}}
\@writefile{toc}{\contentsline {subsubsection}{\numberline {4.2.1.4}styling()}{11}{subsubsection.4.2.1.4}\protected@file@percent }
\@writefile{toc}{\contentsline {section}{\numberline {4.3}sign\discretionary {\unhbox \voidb@x \hbox {\relax \fontsize  {7}{8}\selectfont  $\leftarrow \joinrel  \rhook $}}{}{}Up\discretionary {\unhbox \voidb@x \hbox {\relax \fontsize  {7}{8}\selectfont  $\leftarrow \joinrel  \rhook $}}{}{}Page Class Reference}{12}{section.4.3}\protected@file@percent }
\newlabel{classsignUpPage}{{4.3}{12}{sign\+Up\+Page Class Reference}{section.4.3}{}}
\newlabel{classsignUpPage_ae8e16a191bac95423e7eb4ee95a96c34}{{4.3}{12}{Public Slots}{section*.17}{}}
\newlabel{classsignUpPage_ad1c0549d42c6277c673f9e0134643639}{{4.3}{12}{Public Slots}{section*.17}{}}
\newlabel{classsignUpPage_ab7bbbd5408e1e439a8142bd258b202a8}{{4.3}{12}{Public Slots}{section*.17}{}}
\newlabel{classsignUpPage_aa670d6aa812b67a597142a3aa4a7296d}{{4.3}{12}{Public Member Functions}{section*.18}{}}
\newlabel{classsignUpPage_ae949ef0b781dfbeed319c20645a7686d}{{4.3}{12}{Private Member Functions}{section*.19}{}}
\newlabel{classsignUpPage_acdefceabf4af191798e8a0d06f4aeeed}{{4.3}{12}{Private Member Functions}{section*.19}{}}
\newlabel{classsignUpPage_a83708f40392de214fc385a13ccff8ad6}{{4.3}{12}{Private Member Functions}{section*.19}{}}
\newlabel{classsignUpPage_a62bbf1b639093815bc689097387494a4}{{4.3}{12}{Private Member Functions}{section*.19}{}}
\newlabel{classsignUpPage_a9627ac2213542aff89f033e84e1a3154}{{4.3}{13}{Private Member Functions}{section*.19}{}}
\newlabel{classsignUpPage_aea414b62674cf0edfc2f0d14c258eaac}{{4.3}{13}{Private Member Functions}{section*.19}{}}
\newlabel{classsignUpPage_a53f2e0722109d9f2a70685e53d9569e9}{{4.3}{13}{Private Member Functions}{section*.19}{}}
\newlabel{classsignUpPage_ae21df972acd02ec558fe9c571a1e177c}{{4.3}{13}{Private Member Functions}{section*.19}{}}
\newlabel{classsignUpPage_a1e1aa000c7e792066ddfbf19d81048d7}{{4.3}{13}{Private Member Functions}{section*.19}{}}
\newlabel{classsignUpPage_a348801476540977b9dd943bdbb494323}{{4.3}{13}{Private Member Functions}{section*.19}{}}
\newlabel{classsignUpPage_a250557f060bbfa5cd16d32fab71971f4}{{4.3}{13}{Private Member Functions}{section*.19}{}}
\newlabel{classsignUpPage_ada66271b28461265cde359b7d7cd763b}{{4.3}{13}{Private Attributes}{section*.20}{}}
\newlabel{classsignUpPage_a83b5debf69e7d9d8dcf5af0c023ac6ba}{{4.3}{13}{Private Attributes}{section*.20}{}}
\newlabel{classsignUpPage_aed731ba8585af35120f93ad4a24baa63}{{4.3}{13}{Private Attributes}{section*.20}{}}
\newlabel{classsignUpPage_a599f7e5f14e368fc494e6332e638244c}{{4.3}{13}{Private Attributes}{section*.20}{}}
\newlabel{classsignUpPage_a8c1f6abacefe6c31fe728cc95a96b567}{{4.3}{13}{Private Attributes}{section*.20}{}}
\newlabel{classsignUpPage_a21951f61da605fcf61712cb16a4fc8e8}{{4.3}{13}{Private Attributes}{section*.20}{}}
\newlabel{classsignUpPage_aa79c87c3de0b299f8d7e05c22bab320e}{{4.3}{13}{Private Attributes}{section*.20}{}}
\newlabel{classsignUpPage_ae163985beee349a410f1439a1096f497}{{4.3}{13}{Private Attributes}{section*.20}{}}
\newlabel{classsignUpPage_a6d7d6646340dc01ff5f2132206fb74a8}{{4.3}{13}{Private Attributes}{section*.20}{}}
\newlabel{classsignUpPage_a5b00186f84ea0829d218463c3fbf1ff1}{{4.3}{13}{Private Attributes}{section*.20}{}}
\newlabel{classsignUpPage_ac9ff8ebfebac54d102b30bfc1b6c7832}{{4.3}{13}{Private Attributes}{section*.20}{}}
\newlabel{classsignUpPage_a0508d20d95663333e77de81414d24780}{{4.3}{13}{Private Attributes}{section*.20}{}}
\newlabel{classsignUpPage_a6a7c050b234edab10dfbd8103b372871}{{4.3}{13}{Private Attributes}{section*.20}{}}
\newlabel{classsignUpPage_af3bb23ed1087a92d240fa06717f2499a}{{4.3}{13}{Private Attributes}{section*.20}{}}
\newlabel{classsignUpPage_a3b7cfe7334b885252c7fdb3a14bda181}{{4.3}{13}{Private Attributes}{section*.20}{}}
\newlabel{classsignUpPage_a7732e1dbe02cfcf819c8e3176781a2d0}{{4.3}{13}{Private Attributes}{section*.20}{}}
\newlabel{classsignUpPage_a340d32e32037b066315f1d69a2dc66db}{{4.3}{13}{Private Attributes}{section*.20}{}}
\newlabel{classsignUpPage_a1c2f8b5a8f3c942eb95e16bc3954757b}{{4.3}{13}{Private Attributes}{section*.20}{}}
\newlabel{classsignUpPage_a8a7214b4ece0dad283684fe0bab5d49d}{{4.3}{13}{Private Attributes}{section*.20}{}}
\newlabel{classsignUpPage_a24554129134a34df428e46b8e5e7d5fc}{{4.3}{13}{Private Attributes}{section*.20}{}}
\newlabel{classsignUpPage_a2ae05cac2b47fb32f5426b225ffc44dc}{{4.3}{13}{Private Attributes}{section*.20}{}}
\newlabel{classsignUpPage_a2929caf51353ee4b9040490ce5ade894}{{4.3}{13}{Private Attributes}{section*.20}{}}
\newlabel{classsignUpPage_a09e34920d3f1f7c54ee1c7c2988989d0}{{4.3}{13}{Private Attributes}{section*.20}{}}
\newlabel{classsignUpPage_a7fd0499184042b4c932b5e1da559227e}{{4.3}{13}{Private Attributes}{section*.20}{}}
\newlabel{classsignUpPage_a43301be5e8722884249432dafa52c932}{{4.3}{13}{Private Attributes}{section*.20}{}}
\newlabel{classsignUpPage_ab24e8874a9fe39f8e5698b5d31f00016}{{4.3}{13}{Private Attributes}{section*.20}{}}
\newlabel{classsignUpPage_aed2a53377fdf96336ab94e2d0743c315}{{4.3}{13}{Private Attributes}{section*.20}{}}
\@writefile{toc}{\contentsline {chapter}{\numberline {5}File Documentation}{15}{chapter.5}\protected@file@percent }
\@writefile{lof}{\addvspace {10\p@ }}
\@writefile{lot}{\addvspace {10\p@ }}
\@writefile{toc}{\contentsline {section}{\numberline {5.1}main\discretionary {\unhbox \voidb@x \hbox {\relax \fontsize  {7}{8}\selectfont  $\leftarrow \joinrel  \rhook $}}{}{}Widget.\discretionary {\unhbox \voidb@x \hbox {\relax \fontsize  {7}{8}\selectfont  $\leftarrow \joinrel  \rhook $}}{}{}cpp File Reference}{15}{section.5.1}\protected@file@percent }
\newlabel{mainWidget_8cpp}{{5.1}{15}{main\+Widget.\+cpp File Reference}{section.5.1}{}}
\@writefile{toc}{\contentsline {subsection}{\numberline {5.1.1}Detailed Description}{15}{subsection.5.1.1}\protected@file@percent }
\@writefile{toc}{\contentsline {section}{\numberline {5.2}main\discretionary {\unhbox \voidb@x \hbox {\relax \fontsize  {7}{8}\selectfont  $\leftarrow \joinrel  \rhook $}}{}{}Widget.\discretionary {\unhbox \voidb@x \hbox {\relax \fontsize  {7}{8}\selectfont  $\leftarrow \joinrel  \rhook $}}{}{}h File Reference}{16}{section.5.2}\protected@file@percent }
\newlabel{mainWidget_8h}{{5.2}{16}{main\+Widget.\+h File Reference}{section.5.2}{}}
\@writefile{toc}{\contentsline {subsection}{\numberline {5.2.1}Detailed Description}{16}{subsection.5.2.1}\protected@file@percent }
